^C:\USERS\PRAV\DOCUMENTS\VISUAL STUDIO 2013\PROJECTS\NETWORK\NETWORK\MAIN.CPP
/c /I"H:\SFML-2.3.2\include" /I"H:\Visual Leak Detector\include" /Zi /nologo /W3 /WX- /Od /D WIN32 /D _DEBUG /D _CONSOLE /D _LIB /D _UNICODE /D UNICODE /Gm /EHsc /RTC1 /MDd /GS /fp:precise /Zc:wchar_t /Zc:forScope /Fo"X64\DEBUG\\" /Fd"X64\DEBUG\VC120.PDB" /Gd /TP C:\USERS\PRAV\DOCUMENTS\VISUAL STUDIO 2013\PROJECTS\NETWORK\NETWORK\MAIN.CPP
^C:\USERS\PRAV\DOCUMENTS\VISUAL STUDIO 2013\PROJECTS\NETWORK\NETWORK\NETWORK.CPP
/c /I"H:\SFML-2.3.2\include" /I"H:\Visual Leak Detector\include" /Zi /nologo /W3 /WX- /Od /D WIN32 /D _DEBUG /D _CONSOLE /D _LIB /D _UNICODE /D UNICODE /Gm /EHsc /RTC1 /MDd /GS /fp:precise /Zc:wchar_t /Zc:forScope /Fo"X64\DEBUG\\" /Fd"X64\DEBUG\VC120.PDB" /Gd /TP C:\USERS\PRAV\DOCUMENTS\VISUAL STUDIO 2013\PROJECTS\NETWORK\NETWORK\NETWORK.CPP
